Week5_Tasks
…
# your code goes here
library(magrittr)
library(dplyr)
esoph %>%
  select(agegp, ncases, ncontrols, alcgp) %>%
  group_by(agegp, alcgp) %>%
  summarise(ncases = sum(ncases), ncontrols = sum(ncontrols)) %>%
  arrange((agegp))

## # A tibble: 24 x 4
## # Groups:   agegp [6]
##    agegp     alcgp ncases ncontrols
##    <ord>     <ord>  <dbl>     <dbl>
##  1 25-34 0-39g/day      0        61
##  2 25-34     40-79      0        45
##  3 25-34    80-119      0         5
##  4 25-34      120+      1         5
##  5 35-44 0-39g/day      1        89
##  6 35-44     40-79      4        80
##  7 35-44    80-119      0        20
##  8 35-44      120+      4        10
##  9 45-54 0-39g/day      1        78
## 10 45-54     40-79     20        81
## # ... with 14 more rows
…
a

## # A tibble: 377 x 5
##                           sna       
##                         <chr>  <int>  <int>      <int>     <dbl>
##  1        (2)     30     30          0 1.0000000
##  2        (4)     45     46          1 0.9782609
##  3 (23)     29     30          1 0.9666667
##  4                        25     26          1 0.9615385
##  5      (3)     28     30          2 0.9333333
##  6                    28     30          2 0.9333333
##  7                    35     38          3 0.9210526
##  8                        40     44          4 0.9090909
##  9    (2)     49     54          5 0.9074074
## 10                        36     40          4 0.9000000
## # ... with 367 more rows
…
